[
{
    "fields": {
        "city": 5511077,
        "name": "Reno",
        "country": "US",
        "region": "Nevada",
        "airport": null,
        "location": "POINT (-119.8138000000000005 39.5296299999999974)",
        "slug": "reno"
    },
    "model": "rideshares.location",
    "pk": 1
},
{
    "fields": {
        "city": 5391959,
        "name": "San Francisco",
        "country": "US",
        "region": "California",
        "airport": null,
        "location": "POINT (-122.4194200000000023 37.7749299999999977)",
        "slug": "san-francisco"
    },
    "model": "rideshares.location",
    "pk": 2
},
{
    "fields": {
        "city": 5746545,
        "name": "Portland",
        "country": "US",
        "region": "Oregon",
        "airport": null,
        "location": "POINT (-122.6762099999999975 45.5234499999999969)",
        "slug": "portland"
    },
    "model": "rideshares.location",
    "pk": 3
},
{
    "fields": {
        "city": 5368361,
        "name": "Los Angeles",
        "country": "US",
        "region": "California",
        "airport": null,
        "location": "POINT (-118.2436799999999977 34.0522300000000016)",
        "slug": "los-angeles"
    },
    "model": "rideshares.location",
    "pk": 4
},
{
    "fields": {
        "city": 5419384,
        "name": "Denver",
        "country": "US",
        "region": "Colorado",
        "airport": null,
        "location": "POINT (-104.9847000000000037 39.7391500000000022)",
        "slug": "denver"
    },
    "model": "rideshares.location",
    "pk": 5
},
{
    "fields": {
        "city": 6167865,
        "name": "Toronto",
        "country": "CA",
        "region": "Ontario",
        "airport": null,
        "location": "POINT (-79.4163000000000068 43.7001100000000022)",
        "slug": "toronto"
    },
    "model": "rideshares.location",
    "pk": 6
},
{
    "fields": {
        "city": 5666639,
        "name": "Missoula",
        "country": "US",
        "region": "Montana",
        "airport": null,
        "location": "POINT (-113.9939999999999998 46.8721499999999978)",
        "slug": "missoula"
    },
    "model": "rideshares.location",
    "pk": 7
},
{
    "fields": {
        "city": 5809844,
        "name": "Seattle",
        "country": "US",
        "region": "Washington",
        "airport": null,
        "location": "POINT (-122.3320700000000016 47.6062099999999973)",
        "slug": "seattle"
    },
    "model": "rideshares.location",
    "pk": 8
},
{
    "fields": {
        "city": 4671654,
        "name": "Austin",
        "country": "US",
        "region": "Texas",
        "airport": null,
        "location": "POINT (-97.7430599999999998 30.2671500000000009)",
        "slug": "austin"
    },
    "model": "rideshares.location",
    "pk": 9
},
{
    "fields": {
        "city": 5393052,
        "name": "Santa Cruz",
        "country": "US",
        "region": "California",
        "airport": null,
        "location": "POINT (-122.0307999999999993 36.9741199999999992)",
        "slug": "santa-cruz"
    },
    "model": "rideshares.location",
    "pk": 10
},
{
    "fields": {
        "city": 5389489,
        "name": "Sacramento",
        "country": "US",
        "region": "California",
        "airport": null,
        "location": "POINT (-121.4943999999999988 38.5815699999999993)",
        "slug": "sacramento"
    },
    "model": "rideshares.location",
    "pk": 11
},
{
    "fields": {
        "city": 5805687,
        "name": "Olympia",
        "country": "US",
        "region": "Washington",
        "airport": null,
        "location": "POINT (-122.9007000000000005 47.0378699999999981)",
        "slug": "olympia"
    },
    "model": "rideshares.location",
    "pk": 12
},
{
    "fields": {
        "city": 4347778,
        "name": "Baltimore",
        "country": "US",
        "region": "Maryland",
        "airport": null,
        "location": "POINT (-76.6121899999999982 39.2903799999999990)",
        "slug": "baltimore"
    },
    "model": "rideshares.location",
    "pk": 13
},
{
    "fields": {
        "city": 5374361,
        "name": "Monterey",
        "country": "US",
        "region": "California",
        "airport": null,
        "location": "POINT (-121.8946799999999939 36.6002399999999994)",
        "slug": "monterey"
    },
    "model": "rideshares.location",
    "pk": 14
},
{
    "fields": {
        "city": 5391811,
        "name": "San Diego",
        "country": "US",
        "region": "California",
        "airport": null,
        "location": "POINT (-117.1572599999999937 32.7153300000000016)",
        "slug": "san-diego"
    },
    "model": "rideshares.location",
    "pk": 15
},
{
    "fields": {
        "city": 6173331,
        "name": "Vancouver",
        "country": "CA",
        "region": "British Columbia",
        "airport": null,
        "location": "POINT (-123.1193399999999940 49.2496599999999987)",
        "slug": "vancouver"
    },
    "model": "rideshares.location",
    "pk": 16
},
{
    "fields": {
        "city": 5318313,
        "name": "Tucson",
        "country": "US",
        "region": "Arizona",
        "airport": null,
        "location": "POINT (-110.9264799999999980 32.2217399999999969)",
        "slug": "tucson"
    },
    "model": "rideshares.location",
    "pk": 17
},
{
    "fields": {
        "city": 5332937,
        "name": "Calistoga",
        "country": "US",
        "region": "California",
        "airport": null,
        "location": "POINT (-122.5797100000000057 38.5788000000000011)",
        "slug": "calistoga"
    },
    "model": "rideshares.location",
    "pk": 18
},
{
    "fields": {
        "city": 5506956,
        "name": "Las Vegas",
        "country": "US",
        "region": "Nevada",
        "airport": null,
        "location": "POINT (-115.1372199999999992 36.1749700000000018)",
        "slug": "las-vegas"
    },
    "model": "rideshares.location",
    "pk": 19
},
{
    "fields": {
        "city": 5454711,
        "name": "Albuquerque",
        "country": "US",
        "region": "New Mexico",
        "airport": null,
        "location": "POINT (-106.6511399999999981 35.0844900000000024)",
        "slug": "albuquerque"
    },
    "model": "rideshares.location",
    "pk": 20
},
{
    "fields": {
        "city": 5308655,
        "name": "Phoenix",
        "country": "US",
        "region": "Arizona",
        "airport": null,
        "location": "POINT (-112.0740399999999966 33.4483800000000002)",
        "slug": "phoenix"
    },
    "model": "rideshares.location",
    "pk": 21
},
{
    "fields": {
        "city": 5780993,
        "name": "Salt Lake City",
        "country": "US",
        "region": "Utah",
        "airport": null,
        "location": "POINT (-111.8910500000000070 40.7607799999999969)",
        "slug": "salt-lake-city"
    },
    "model": "rideshares.location",
    "pk": 22
},
{
    "fields": {
        "city": 5946768,
        "name": "Edmonton",
        "country": "CA",
        "region": "Alberta",
        "airport": null,
        "location": "POINT (-113.4687100000000015 53.5501399999999990)",
        "slug": "edmonton"
    },
    "model": "rideshares.location",
    "pk": 23
},
{
    "fields": {
        "city": 5913490,
        "name": "Calgary",
        "country": "CA",
        "region": "Alberta",
        "airport": null,
        "location": "POINT (-114.0852900000000005 51.0501099999999965)",
        "slug": "calgary"
    },
    "model": "rideshares.location",
    "pk": 24
},
{
    "fields": {
        "city": 4684888,
        "name": "Dallas",
        "country": "US",
        "region": "Texas",
        "airport": null,
        "location": "POINT (-96.8066699999999969 32.7830599999999990)",
        "slug": "dallas"
    },
    "model": "rideshares.location",
    "pk": 25
},
{
    "fields": {
        "city": 5713587,
        "name": "Bend",
        "country": "US",
        "region": "Oregon",
        "airport": null,
        "location": "POINT (-121.3153099999999966 44.0581699999999969)",
        "slug": "bend"
    },
    "model": "rideshares.location",
    "pk": 26
},
{
    "fields": {
        "city": 5574991,
        "name": "Boulder",
        "country": "US",
        "region": "Colorado",
        "airport": null,
        "location": "POINT (-105.2705500000000001 40.0149899999999974)",
        "slug": "boulder"
    },
    "model": "rideshares.location",
    "pk": 27
},
{
    "fields": {
        "city": 4180439,
        "name": "Atlanta",
        "country": "US",
        "region": "Georgia",
        "airport": null,
        "location": "POINT (-84.3879799999999989 33.7490000000000023)",
        "slug": "atlanta"
    },
    "model": "rideshares.location",
    "pk": 28
},
{
    "fields": {
        "city": 4887398,
        "name": "Chicago",
        "country": "US",
        "region": "Illinois",
        "airport": null,
        "location": "POINT (-87.6500499999999931 41.8500299999999967)",
        "slug": "chicago"
    },
    "model": "rideshares.location",
    "pk": 29
},
{
    "fields": {
        "city": 4930956,
        "name": "Boston",
        "country": "US",
        "region": "Massachusetts",
        "airport": null,
        "location": "POINT (-71.0597700000000003 42.3584299999999985)",
        "slug": "boston"
    },
    "model": "rideshares.location",
    "pk": 30
},
{
    "fields": {
        "city": 4984247,
        "name": "Ann Arbor",
        "country": "US",
        "region": "Michigan",
        "airport": null,
        "location": "POINT (-83.7408800000000042 42.2775600000000011)",
        "slug": "ann-arbor"
    },
    "model": "rideshares.location",
    "pk": 31
},
{
    "fields": {
        "city": 5417598,
        "name": "Colorado Springs",
        "country": "US",
        "region": "Colorado",
        "airport": null,
        "location": "POINT (-104.8213599999999985 38.8338800000000006)",
        "slug": "colorado-springs"
    },
    "model": "rideshares.location",
    "pk": 32
},
{
    "fields": {
        "city": 6174041,
        "name": "Victoria",
        "country": "CA",
        "region": "British Columbia",
        "airport": null,
        "location": "POINT (-123.3692999999999955 48.4329400000000021)",
        "slug": "victoria"
    },
    "model": "rideshares.location",
    "pk": 33
},
{
    "fields": {
        "city": 4273837,
        "name": "Kansas City",
        "country": "US",
        "region": "Kansas",
        "airport": null,
        "location": "POINT (-94.6274599999999992 39.1141700000000014)",
        "slug": "kansas-city"
    },
    "model": "rideshares.location",
    "pk": 34
},
{
    "fields": {
        "city": 6077243,
        "name": "Montreal",
        "country": "CA",
        "region": "Quebec",
        "airport": null,
        "location": "POINT (-73.5878100000000046 45.5088399999999993)",
        "slug": "montreal"
    },
    "model": "rideshares.location",
    "pk": 35
},
{
    "fields": {
        "city": 4453066,
        "name": "Asheville",
        "country": "US",
        "region": "North Carolina",
        "airport": null,
        "location": "POINT (-82.5540199999999942 35.6009499999999974)",
        "slug": "asheville"
    },
    "model": "rideshares.location",
    "pk": 36
},
{
    "fields": {
        "city": 5586437,
        "name": "Boise",
        "country": "US",
        "region": "Idaho",
        "airport": null,
        "location": "POINT (-116.2034500000000037 43.6135000000000019)",
        "slug": "boise"
    },
    "model": "rideshares.location",
    "pk": 37
},
{
    "fields": {
        "city": 5128581,
        "name": "New York City",
        "country": "US",
        "region": "New York",
        "airport": null,
        "location": "POINT (-74.0059700000000049 40.7142699999999991)",
        "slug": "new-york-city"
    },
    "model": "rideshares.location",
    "pk": 38
},
{
    "fields": {
        "city": 4560349,
        "name": "Philadelphia",
        "country": "US",
        "region": "Pennsylvania",
        "airport": null,
        "location": "POINT (-75.1637900000000059 39.9523399999999995)",
        "slug": "philadelphia"
    },
    "model": "rideshares.location",
    "pk": 39
},
{
    "fields": {
        "city": 4990729,
        "name": "Detroit",
        "country": "US",
        "region": "Michigan",
        "airport": null,
        "location": "POINT (-83.0457499999999982 42.3314299999999974)",
        "slug": "detroit"
    },
    "model": "rideshares.location",
    "pk": 40
},
{
    "fields": {
        "city": 5703670,
        "name": "Elko",
        "country": "US",
        "region": "Nevada",
        "airport": null,
        "location": "POINT (-115.7631200000000007 40.8324199999999990)",
        "slug": "elko"
    },
    "model": "rideshares.location",
    "pk": 41
},
{
    "fields": {
        "city": 4167694,
        "name": "Panama City",
        "country": "US",
        "region": "Florida",
        "airport": null,
        "location": "POINT (-85.6598299999999995 30.1594599999999993)",
        "slug": "panama-city"
    },
    "model": "rideshares.location",
    "pk": 42
},
{
    "fields": {
        "city": 4174757,
        "name": "Tampa",
        "country": "US",
        "region": "Florida",
        "airport": null,
        "location": "POINT (-82.4584300000000070 27.9475200000000008)",
        "slug": "tampa"
    },
    "model": "rideshares.location",
    "pk": 43
},
{
    "fields": {
        "city": 4076598,
        "name": "Mobile",
        "country": "US",
        "region": "Alabama",
        "airport": null,
        "location": "POINT (-88.0430499999999938 30.6943599999999996)",
        "slug": "mobile"
    },
    "model": "rideshares.location",
    "pk": 44
},
{
    "fields": {
        "city": 4699066,
        "name": "Houston",
        "country": "US",
        "region": "Texas",
        "airport": null,
        "location": "POINT (-95.3632700000000000 29.7632800000000017)",
        "slug": "houston"
    },
    "model": "rideshares.location",
    "pk": 45
},
{
    "fields": {
        "city": 4281730,
        "name": "Wichita",
        "country": "US",
        "region": "Kansas",
        "airport": null,
        "location": "POINT (-97.3375400000000042 37.6922399999999982)",
        "slug": "wichita"
    },
    "model": "rideshares.location",
    "pk": 46
},
{
    "fields": {
        "city": 5373900,
        "name": "Modesto",
        "country": "US",
        "region": "California",
        "airport": null,
        "location": "POINT (-120.9968800000000044 37.6390999999999991)",
        "slug": "modesto"
    },
    "model": "rideshares.location",
    "pk": 47
},
{
    "fields": {
        "city": 5380184,
        "name": "Oxnard",
        "country": "US",
        "region": "California",
        "airport": null,
        "location": "POINT (-119.1770499999999942 34.1974999999999980)",
        "slug": "oxnard"
    },
    "model": "rideshares.location",
    "pk": 48
},
{
    "fields": {
        "city": 4393217,
        "name": "Kansas City",
        "country": "US",
        "region": "Missouri",
        "airport": null,
        "location": "POINT (-94.5785699999999991 39.0997300000000010)",
        "slug": "kansas-city"
    },
    "model": "rideshares.location",
    "pk": 49
},
{
    "fields": {
        "city": 4544349,
        "name": "Oklahoma City",
        "country": "US",
        "region": "Oklahoma",
        "airport": null,
        "location": "POINT (-97.5164299999999997 35.4675599999999989)",
        "slug": "oklahoma-city"
    },
    "model": "rideshares.location",
    "pk": 50
},
{
    "fields": {
        "city": 5059163,
        "name": "Fargo",
        "country": "US",
        "region": "North Dakota",
        "airport": null,
        "location": "POINT (-96.7897999999999996 46.8771899999999988)",
        "slug": "fargo"
    },
    "model": "rideshares.location",
    "pk": 51
},
{
    "fields": {
        "city": 4335045,
        "name": "New Orleans",
        "country": "US",
        "region": "Louisiana",
        "airport": null,
        "location": "POINT (-90.0750699999999966 29.9546500000000009)",
        "slug": "new-orleans"
    },
    "model": "rideshares.location",
    "pk": 52
},
{
    "fields": {
        "city": 5405878,
        "name": "Ventura",
        "country": "US",
        "region": "California",
        "airport": null,
        "location": "POINT (-119.2931700000000035 34.2783400000000000)",
        "slug": "ventura"
    },
    "model": "rideshares.location",
    "pk": 53
},
{
    "fields": {
        "city": 5263045,
        "name": "Milwaukee",
        "country": "US",
        "region": "Wisconsin",
        "airport": null,
        "location": "POINT (-87.9064699999999988 43.0388999999999982)",
        "slug": "milwaukee"
    },
    "model": "rideshares.location",
    "pk": 54
},
{
    "fields": {
        "city": 5392323,
        "name": "San Luis Obispo",
        "country": "US",
        "region": "California",
        "airport": null,
        "location": "POINT (-120.6596200000000039 35.2827500000000001)",
        "slug": "san-luis-obispo"
    },
    "model": "rideshares.location",
    "pk": 55
},
{
    "fields": {
        "city": 5358705,
        "name": "Huntington Beach",
        "country": "US",
        "region": "California",
        "airport": null,
        "location": "POINT (-117.9992299999999972 33.6602999999999994)",
        "slug": "huntington-beach"
    },
    "model": "rideshares.location",
    "pk": 56
},
{
    "fields": {
        "city": 5404476,
        "name": "Ukiah",
        "country": "US",
        "region": "California",
        "airport": null,
        "location": "POINT (-123.2077799999999996 39.1501700000000028)",
        "slug": "ukiah"
    },
    "model": "rideshares.location",
    "pk": 57
},
{
    "fields": {
        "city": 4407066,
        "name": "St. Louis",
        "country": "US",
        "region": "Missouri",
        "airport": null,
        "location": "POINT (-90.1978900000000010 38.6272700000000029)",
        "slug": "st-louis"
    },
    "model": "rideshares.location",
    "pk": 58
},
{
    "fields": {
        "city": 5577147,
        "name": "Fort Collins",
        "country": "US",
        "region": "Colorado",
        "airport": null,
        "location": "POINT (-105.0844199999999944 40.5852599999999981)",
        "slug": "fort-collins"
    },
    "model": "rideshares.location",
    "pk": 59
},
{
    "fields": {
        "city": 4862034,
        "name": "Iowa City",
        "country": "US",
        "region": "Iowa",
        "airport": null,
        "location": "POINT (-91.5301699999999983 41.6611300000000000)",
        "slug": "iowa-city"
    },
    "model": "rideshares.location",
    "pk": 60
},
{
    "fields": {
        "city": 5325738,
        "name": "Bakersfield",
        "country": "US",
        "region": "California",
        "airport": null,
        "location": "POINT (-119.0187099999999987 35.3732899999999972)",
        "slug": "bakersfield"
    },
    "model": "rideshares.location",
    "pk": 61
},
{
    "fields": {
        "city": 5493811,
        "name": "Taos",
        "country": "US",
        "region": "New Mexico",
        "airport": null,
        "location": "POINT (-105.5730700000000013 36.4072499999999977)",
        "slug": "taos"
    },
    "model": "rideshares.location",
    "pk": 62
},
{
    "fields": {
        "city": 5861897,
        "name": "Fairbanks",
        "country": "US",
        "region": "Alaska",
        "airport": null,
        "location": "POINT (-147.7163899999999899 64.8377799999999951)",
        "slug": "fairbanks"
    },
    "model": "rideshares.location",
    "pk": 63
},
{
    "fields": {
        "city": 4167147,
        "name": "Orlando",
        "country": "US",
        "region": "Florida",
        "airport": null,
        "location": "POINT (-81.3792399999999958 28.5383400000000016)",
        "slug": "orlando"
    },
    "model": "rideshares.location",
    "pk": 64
},
{
    "fields": {
        "city": 5558953,
        "name": "Arcata",
        "country": "US",
        "region": "California",
        "airport": null,
        "location": "POINT (-124.0828400000000045 40.8665200000000013)",
        "slug": "arcata"
    },
    "model": "rideshares.location",
    "pk": 65
},
{
    "fields": {
        "city": 6094817,
        "name": "Ottawa",
        "country": "CA",
        "region": "Ontario",
        "airport": null,
        "location": "POINT (-75.6981200000000030 45.4111699999999985)",
        "slug": "ottawa"
    },
    "model": "rideshares.location",
    "pk": 66
},
{
    "fields": {
        "city": 5406567,
        "name": "Visalia",
        "country": "US",
        "region": "California",
        "airport": null,
        "location": "POINT (-119.2920600000000064 36.3302300000000002)",
        "slug": "visalia"
    },
    "model": "rideshares.location",
    "pk": 67
},
{
    "fields": {
        "city": 5313667,
        "name": "Sedona",
        "country": "US",
        "region": "Arizona",
        "airport": null,
        "location": "POINT (-111.7609900000000067 34.8697400000000002)",
        "slug": "sedona"
    },
    "model": "rideshares.location",
    "pk": 68
},
{
    "fields": {
        "city": 5570160,
        "name": "Redding",
        "country": "US",
        "region": "California",
        "airport": null,
        "location": "POINT (-122.3916799999999938 40.5865399999999994)",
        "slug": "redding"
    },
    "model": "rideshares.location",
    "pk": 69
},
{
    "fields": {
        "city": 5609286,
        "name": "Sun Valley",
        "country": "US",
        "region": "Idaho",
        "airport": null,
        "location": "POINT (-114.3517200000000003 43.6971300000000014)",
        "slug": "sun-valley"
    },
    "model": "rideshares.location",
    "pk": 70
},
{
    "fields": {
        "city": 5409500,
        "name": "Willits",
        "country": "US",
        "region": "California",
        "airport": null,
        "location": "POINT (-123.3555700000000002 39.4096100000000007)",
        "slug": "willits"
    },
    "model": "rideshares.location",
    "pk": 71
},
{
    "fields": {
        "city": 5339840,
        "name": "Costa Mesa",
        "country": "US",
        "region": "California",
        "airport": null,
        "location": "POINT (-117.9186700000000059 33.6411299999999969)",
        "slug": "costa-mesa"
    },
    "model": "rideshares.location",
    "pk": 72
},
{
    "fields": {
        "city": 5520993,
        "name": "El Paso",
        "country": "US",
        "region": "Texas",
        "airport": null,
        "location": "POINT (-106.4869300000000010 31.7587200000000003)",
        "slug": "el-paso"
    },
    "model": "rideshares.location",
    "pk": 73
},
{
    "fields": {
        "city": 4553433,
        "name": "Tulsa",
        "country": "US",
        "region": "Oklahoma",
        "airport": null,
        "location": "POINT (-95.9927799999999962 36.1539799999999971)",
        "slug": "tulsa"
    },
    "model": "rideshares.location",
    "pk": 74
},
{
    "fields": {
        "city": 4164138,
        "name": "Miami",
        "country": "US",
        "region": "Florida",
        "airport": null,
        "location": "POINT (-80.1936599999999942 25.7742700000000013)",
        "slug": "miami"
    },
    "model": "rideshares.location",
    "pk": 75
},
{
    "fields": {
        "city": 5364499,
        "name": "Lake Elsinore",
        "country": "US",
        "region": "California",
        "airport": null,
        "location": "POINT (-117.3272599999999954 33.6680800000000033)",
        "slug": "lake-elsinore"
    },
    "model": "rideshares.location",
    "pk": 76
},
{
    "fields": {
        "city": 4543762,
        "name": "Norman",
        "country": "US",
        "region": "Oklahoma",
        "airport": null,
        "location": "POINT (-97.4394800000000032 35.2225699999999975)",
        "slug": "norman"
    },
    "model": "rideshares.location",
    "pk": 77
},
{
    "fields": {
        "city": 5370542,
        "name": "Marina del Rey",
        "country": "US",
        "region": "California",
        "airport": null,
        "location": "POINT (-118.4517400000000009 33.9802899999999966)",
        "slug": "marina-del-rey"
    },
    "model": "rideshares.location",
    "pk": 78
},
{
    "fields": {
        "city": 4259418,
        "name": "Indianapolis",
        "country": "US",
        "region": "Indiana",
        "airport": null,
        "location": "POINT (-86.1580399999999997 39.7683800000000005)",
        "slug": "indianapolis"
    },
    "model": "rideshares.location",
    "pk": 79
},
{
    "fields": {
        "city": 5376890,
        "name": "Newport Beach",
        "country": "US",
        "region": "California",
        "airport": null,
        "location": "POINT (-117.9289500000000004 33.6189099999999996)",
        "slug": "newport-beach"
    },
    "model": "rideshares.location",
    "pk": 80
},
{
    "fields": {
        "city": 5323810,
        "name": "Anaheim",
        "country": "US",
        "region": "California",
        "airport": null,
        "location": "POINT (-117.9145000000000039 33.8352900000000005)",
        "slug": "anaheim"
    },
    "model": "rideshares.location",
    "pk": 81
},
{
    "fields": {
        "city": 4641239,
        "name": "Memphis",
        "country": "US",
        "region": "Tennessee",
        "airport": null,
        "location": "POINT (-90.0489800000000002 35.1495299999999986)",
        "slug": "memphis"
    },
    "model": "rideshares.location",
    "pk": 82
},
{
    "fields": {
        "city": 5112035,
        "name": "Centereach",
        "country": "US",
        "region": "New York",
        "airport": null,
        "location": "POINT (-73.0995499999999936 40.8584299999999985)",
        "slug": "centereach"
    },
    "model": "rideshares.location",
    "pk": 83
},
{
    "fields": {
        "city": 5351515,
        "name": "Garden Grove",
        "country": "US",
        "region": "California",
        "airport": null,
        "location": "POINT (-117.9414500000000032 33.7739100000000008)",
        "slug": "garden-grove"
    },
    "model": "rideshares.location",
    "pk": 84
},
{
    "fields": {
        "city": 4685907,
        "name": "Denton",
        "country": "US",
        "region": "Texas",
        "airport": null,
        "location": "POINT (-97.1330700000000036 33.2148400000000024)",
        "slug": "denton"
    },
    "model": "rideshares.location",
    "pk": 85
},
{
    "fields": {
        "city": 4876523,
        "name": "Sioux City",
        "country": "US",
        "region": "Iowa",
        "airport": null,
        "location": "POINT (-96.4003100000000046 42.4999899999999968)",
        "slug": "sioux-city"
    },
    "model": "rideshares.location",
    "pk": 86
},
{
    "fields": {
        "city": 5309858,
        "name": "Prescott Valley",
        "country": "US",
        "region": "Arizona",
        "airport": null,
        "location": "POINT (-112.3252499999999969 34.5894100000000009)",
        "slug": "prescott-valley"
    },
    "model": "rideshares.location",
    "pk": 87
},
{
    "fields": {
        "city": 4612862,
        "name": "Chattanooga",
        "country": "US",
        "region": "Tennessee",
        "airport": null,
        "location": "POINT (-85.3096800000000002 35.0456300000000027)",
        "slug": "chattanooga"
    },
    "model": "rideshares.location",
    "pk": 88
},
{
    "fields": {
        "city": 5990579,
        "name": "Kelowna",
        "country": "CA",
        "region": "British Columbia",
        "airport": null,
        "location": "POINT (-119.4856800000000021 49.8830699999999965)",
        "slug": "kelowna"
    },
    "model": "rideshares.location",
    "pk": 89
},
{
    "fields": {
        "city": 4174715,
        "name": "Tallahassee",
        "country": "US",
        "region": "Florida",
        "airport": null,
        "location": "POINT (-84.2807300000000055 30.4382599999999996)",
        "slug": "tallahassee"
    },
    "model": "rideshares.location",
    "pk": 90
},
{
    "fields": {
        "city": 4168228,
        "name": "Pensacola",
        "country": "US",
        "region": "Florida",
        "airport": null,
        "location": "POINT (-87.2169099999999986 30.4213099999999983)",
        "slug": "pensacola"
    },
    "model": "rideshares.location",
    "pk": 91
},
{
    "fields": {
        "city": 5254962,
        "name": "Green Bay",
        "country": "US",
        "region": "Wisconsin",
        "airport": null,
        "location": "POINT (-88.0198299999999989 44.5191599999999994)",
        "slug": "green-bay"
    },
    "model": "rideshares.location",
    "pk": 92
},
{
    "fields": {
        "city": 5957776,
        "name": "Fredericton",
        "country": "CA",
        "region": "New Brunswick",
        "airport": null,
        "location": "POINT (-66.6655800000000056 45.9454100000000025)",
        "slug": "fredericton"
    },
    "model": "rideshares.location",
    "pk": 93
},
{
    "fields": {
        "city": 4369596,
        "name": "Silver Spring",
        "country": "US",
        "region": "Maryland",
        "airport": null,
        "location": "POINT (-77.0260899999999964 38.9906700000000015)",
        "slug": "silver-spring"
    },
    "model": "rideshares.location",
    "pk": 94
},
{
    "fields": {
        "city": 5024237,
        "name": "Detroit Lakes",
        "country": "US",
        "region": "Minnesota",
        "airport": null,
        "location": "POINT (-95.8453300000000041 46.8171800000000005)",
        "slug": "detroit-lakes"
    },
    "model": "rideshares.location",
    "pk": 95
},
{
    "fields": {
        "city": 6183235,
        "name": "Winnipeg",
        "country": "CA",
        "region": "Manitoba",
        "airport": null,
        "location": "POINT (-97.1470400000000041 49.8843999999999994)",
        "slug": "winnipeg"
    },
    "model": "rideshares.location",
    "pk": 96
},
{
    "fields": {
        "city": 5382232,
        "name": "Petaluma",
        "country": "US",
        "region": "California",
        "airport": null,
        "location": "POINT (-122.6366500000000030 38.2324199999999976)",
        "slug": "petaluma"
    },
    "model": "rideshares.location",
    "pk": 97
},
{
    "fields": {
        "city": 5372223,
        "name": "Menlo Park",
        "country": "US",
        "region": "California",
        "airport": null,
        "location": "POINT (-122.1821900000000056 37.4538300000000035)",
        "slug": "menlo-park"
    },
    "model": "rideshares.location",
    "pk": 98
},
{
    "fields": {
        "city": 4177887,
        "name": "West Palm Beach",
        "country": "US",
        "region": "Florida",
        "airport": null,
        "location": "POINT (-80.0533700000000010 26.7153400000000012)",
        "slug": "west-palm-beach"
    },
    "model": "rideshares.location",
    "pk": 99
},
{
    "fields": {
        "city": 4833425,
        "name": "East Haven",
        "country": "US",
        "region": "Connecticut",
        "airport": null,
        "location": "POINT (-72.8684300000000036 41.2762099999999990)",
        "slug": "east-haven"
    },
    "model": "rideshares.location",
    "pk": 100
},
{
    "fields": {
        "city": 5021828,
        "name": "Columbia Heights",
        "country": "US",
        "region": "Minnesota",
        "airport": null,
        "location": "POINT (-93.2630000000000052 45.0407999999999973)",
        "slug": "columbia-heights"
    },
    "model": "rideshares.location",
    "pk": 101
},
{
    "fields": {
        "city": 5596475,
        "name": "Idaho Falls",
        "country": "US",
        "region": "Idaho",
        "airport": null,
        "location": "POINT (-112.0341399999999936 43.4665800000000004)",
        "slug": "idaho-falls"
    },
    "model": "rideshares.location",
    "pk": 102
},
{
    "fields": {
        "city": 5101717,
        "name": "New Brunswick",
        "country": "US",
        "region": "New Jersey",
        "airport": null,
        "location": "POINT (-74.4518199999999979 40.4862200000000030)",
        "slug": "new-brunswick"
    },
    "model": "rideshares.location",
    "pk": 103
},
{
    "fields": {
        "city": 5697939,
        "name": "North Platte",
        "country": "US",
        "region": "Nebraska",
        "airport": null,
        "location": "POINT (-100.7654200000000060 41.1238900000000029)",
        "slug": "north-platte"
    },
    "model": "rideshares.location",
    "pk": 104
},
{
    "fields": {
        "city": 4057835,
        "name": "Cullman",
        "country": "US",
        "region": "Alabama",
        "airport": null,
        "location": "POINT (-86.8436099999999982 34.1748199999999969)",
        "slug": "cullman"
    },
    "model": "rideshares.location",
    "pk": 105
},
{
    "fields": {
        "city": 5786899,
        "name": "Bellingham",
        "country": "US",
        "region": "Washington",
        "airport": null,
        "location": "POINT (-122.4882199999999983 48.7595499999999973)",
        "slug": "bellingham"
    },
    "model": "rideshares.location",
    "pk": 106
},
{
    "fields": {
        "city": 5330582,
        "name": "Brea",
        "country": "US",
        "region": "California",
        "airport": null,
        "location": "POINT (-117.9000599999999963 33.9166799999999995)",
        "slug": "brea"
    },
    "model": "rideshares.location",
    "pk": 107
},
{
    "fields": {
        "city": 5326297,
        "name": "Barstow",
        "country": "US",
        "region": "California",
        "airport": null,
        "location": "POINT (-117.0228199999999958 34.8985899999999987)",
        "slug": "barstow"
    },
    "model": "rideshares.location",
    "pk": 108
},
{
    "fields": {
        "city": 5962442,
        "name": "Goderich",
        "country": "CA",
        "region": "Ontario",
        "airport": null,
        "location": "POINT (-81.7164800000000042 43.7500799999999970)",
        "slug": "goderich"
    },
    "model": "rideshares.location",
    "pk": 109
},
{
    "fields": {
        "city": 4152872,
        "name": "Daytona Beach",
        "country": "US",
        "region": "Florida",
        "airport": null,
        "location": "POINT (-81.0228299999999990 29.2108099999999986)",
        "slug": "daytona-beach"
    },
    "model": "rideshares.location",
    "pk": 110
},
{
    "fields": {
        "city": 5403676,
        "name": "Truckee",
        "country": "US",
        "region": "California",
        "airport": null,
        "location": "POINT (-120.1832500000000010 39.3279599999999974)",
        "slug": "truckee"
    },
    "model": "rideshares.location",
    "pk": 111
},
{
    "fields": {
        "city": 5301388,
        "name": "Lake Havasu City",
        "country": "US",
        "region": "Arizona",
        "airport": null,
        "location": "POINT (-114.3224500000000035 34.4838999999999984)",
        "slug": "lake-havasu-city"
    },
    "model": "rideshares.location",
    "pk": 112
},
{
    "fields": {
        "city": 5331920,
        "name": "Burlingame",
        "country": "US",
        "region": "California",
        "airport": null,
        "location": "POINT (-122.3660799999999966 37.5840999999999994)",
        "slug": "burlingame"
    },
    "model": "rideshares.location",
    "pk": 113
},
{
    "fields": {
        "city": 5606401,
        "name": "Sandpoint",
        "country": "US",
        "region": "Idaho",
        "airport": null,
        "location": "POINT (-116.5532500000000056 48.2765899999999988)",
        "slug": "sandpoint"
    },
    "model": "rideshares.location",
    "pk": 114
},
{
    "fields": {
        "city": 5404024,
        "name": "Turlock",
        "country": "US",
        "region": "California",
        "airport": null,
        "location": "POINT (-120.8465900000000062 37.4946600000000032)",
        "slug": "turlock"
    },
    "model": "rideshares.location",
    "pk": 115
},
{
    "fields": {
        "city": 5132143,
        "name": "Poughkeepsie",
        "country": "US",
        "region": "New York",
        "airport": null,
        "location": "POINT (-73.9209699999999970 41.7003699999999995)",
        "slug": "poughkeepsie"
    },
    "model": "rideshares.location",
    "pk": 116
},
{
    "fields": {
        "city": 5171681,
        "name": "Seville",
        "country": "US",
        "region": "Ohio",
        "airport": null,
        "location": "POINT (-81.8623599999999954 41.0100600000000028)",
        "slug": "seville"
    },
    "model": "rideshares.location",
    "pk": 117
},
{
    "fields": {
        "city": 5132013,
        "name": "Port Jefferson",
        "country": "US",
        "region": "New York",
        "airport": null,
        "location": "POINT (-73.0692700000000031 40.9464899999999972)",
        "slug": "port-jefferson"
    },
    "model": "rideshares.location",
    "pk": 118
},
{
    "fields": {
        "city": 4499612,
        "name": "Winston-Salem",
        "country": "US",
        "region": "North Carolina",
        "airport": null,
        "location": "POINT (-80.2442199999999985 36.0998599999999996)",
        "slug": "winston-salem"
    },
    "model": "rideshares.location",
    "pk": 119
},
{
    "fields": {
        "city": 5641727,
        "name": "Bozeman",
        "country": "US",
        "region": "Montana",
        "airport": null,
        "location": "POINT (-111.0385600000000039 45.6796500000000023)",
        "slug": "bozeman"
    },
    "model": "rideshares.location",
    "pk": 120
},
{
    "fields": {
        "city": 5783695,
        "name": "Tooele",
        "country": "US",
        "region": "Utah",
        "airport": null,
        "location": "POINT (-112.2982800000000054 40.5307800000000000)",
        "slug": "tooele"
    },
    "model": "rideshares.location",
    "pk": 121
},
{
    "fields": {
        "city": 1622846,
        "name": "Ubud",
        "country": "ID",
        "region": "Bali",
        "airport": null,
        "location": "POINT (115.2653999999999996 -8.5098000000000003)",
        "slug": "ubud"
    },
    "model": "rideshares.location",
    "pk": 122
},
{
    "fields": {
        "city": 5323163,
        "name": "Aliso Viejo",
        "country": "US",
        "region": "California",
        "airport": null,
        "location": "POINT (-117.7271199999999993 33.5650400000000033)",
        "slug": "aliso-viejo"
    },
    "model": "rideshares.location",
    "pk": 123
},
{
    "fields": {
        "city": 5851942,
        "name": "Paia",
        "country": "US",
        "region": "Hawaii",
        "airport": null,
        "location": "POINT (-156.3694399999999973 20.9033300000000004)",
        "slug": "paia"
    },
    "model": "rideshares.location",
    "pk": 124
},
{
    "fields": {
        "city": 4508722,
        "name": "Cincinnati",
        "country": "US",
        "region": "Ohio",
        "airport": null,
        "location": "POINT (-84.4568900000000014 39.1619999999999990)",
        "slug": "cincinnati"
    },
    "model": "rideshares.location",
    "pk": 125
},
{
    "fields": {
        "city": 5206379,
        "name": "Pittsburgh",
        "country": "US",
        "region": "Pennsylvania",
        "airport": null,
        "location": "POINT (-79.9958900000000028 40.4406200000000027)",
        "slug": "pittsburgh"
    },
    "model": "rideshares.location",
    "pk": 126
},
{
    "fields": {
        "city": 5404119,
        "name": "Tustin",
        "country": "US",
        "region": "California",
        "airport": null,
        "location": "POINT (-117.8261700000000047 33.7458499999999972)",
        "slug": "tustin"
    },
    "model": "rideshares.location",
    "pk": 127
},
{
    "fields": {
        "city": 4986429,
        "name": "Bloomfield Hills",
        "country": "US",
        "region": "Michigan",
        "airport": null,
        "location": "POINT (-83.2454900000000038 42.5836400000000026)",
        "slug": "bloomfield-hills"
    },
    "model": "rideshares.location",
    "pk": 128
},
{
    "fields": {
        "city": 5377654,
        "name": "North Hollywood",
        "country": "US",
        "region": "California",
        "airport": null,
        "location": "POINT (-118.3789699999999954 34.1722299999999990)",
        "slug": "north-hollywood"
    },
    "model": "rideshares.location",
    "pk": 129
},
{
    "fields": {
        "city": 5589173,
        "name": "Coeur d'Alene",
        "country": "US",
        "region": "Idaho",
        "airport": null,
        "location": "POINT (-116.7804699999999940 47.6776800000000023)",
        "slug": "coeur-dalene"
    },
    "model": "rideshares.location",
    "pk": 130
},
{
    "fields": {
        "city": 5098745,
        "name": "Hackettstown",
        "country": "US",
        "region": "New Jersey",
        "airport": null,
        "location": "POINT (-74.8290599999999984 40.8539900000000031)",
        "slug": "hackettstown"
    },
    "model": "rideshares.location",
    "pk": 131
},
{
    "fields": {
        "city": 4997787,
        "name": "Kalamazoo",
        "country": "US",
        "region": "Michigan",
        "airport": null,
        "location": "POINT (-85.5872300000000052 42.2917100000000019)",
        "slug": "kalamazoo"
    },
    "model": "rideshares.location",
    "pk": 132
},
{
    "fields": {
        "city": 5710360,
        "name": "Winnemucca",
        "country": "US",
        "region": "Nevada",
        "airport": null,
        "location": "POINT (-117.7356800000000021 40.9729600000000005)",
        "slug": "winnemucca"
    },
    "model": "rideshares.location",
    "pk": 133
},
{
    "fields": {
        "city": 5543307,
        "name": "Moab",
        "country": "US",
        "region": "Utah",
        "airport": null,
        "location": "POINT (-109.5498400000000032 38.5733200000000025)",
        "slug": "moab"
    },
    "model": "rideshares.location",
    "pk": 134
},
{
    "fields": {
        "city": 5370006,
        "name": "Mammoth Lakes",
        "country": "US",
        "region": "California",
        "airport": null,
        "location": "POINT (-118.9720800000000054 37.6485500000000002)",
        "slug": "mammoth-lakes"
    },
    "model": "rideshares.location",
    "pk": 135
},
{
    "fields": {
        "city": 5836068,
        "name": "Rawlins",
        "country": "US",
        "region": "Wyoming",
        "airport": null,
        "location": "POINT (-107.2386599999999959 41.7910699999999977)",
        "slug": "rawlins"
    },
    "model": "rideshares.location",
    "pk": 136
},
{
    "fields": {
        "city": 5605242,
        "name": "Rexburg",
        "country": "US",
        "region": "Idaho",
        "airport": null,
        "location": "POINT (-111.7896899999999931 43.8260199999999998)",
        "slug": "rexburg"
    },
    "model": "rideshares.location",
    "pk": 137
},
{
    "fields": {
        "city": 5141927,
        "name": "Uniondale",
        "country": "US",
        "region": "New York",
        "airport": null,
        "location": "POINT (-73.5929100000000034 40.7003800000000027)",
        "slug": "uniondale"
    },
    "model": "rideshares.location",
    "pk": 138
},
{
    "fields": {
        "city": 5408076,
        "name": "West Hollywood",
        "country": "US",
        "region": "California",
        "airport": null,
        "location": "POINT (-118.3617399999999975 34.0900099999999995)",
        "slug": "west-hollywood"
    },
    "model": "rideshares.location",
    "pk": 139
},
{
    "fields": {
        "city": 4752031,
        "name": "Charlottesville",
        "country": "US",
        "region": "Virginia",
        "airport": null,
        "location": "POINT (-78.4766800000000018 38.0293100000000024)",
        "slug": "charlottesville"
    },
    "model": "rideshares.location",
    "pk": 140
},
{
    "fields": {
        "city": 5361298,
        "name": "Joshua Tree",
        "country": "US",
        "region": "California",
        "airport": null,
        "location": "POINT (-116.3130699999999962 34.1347299999999976)",
        "slug": "joshua-tree"
    },
    "model": "rideshares.location",
    "pk": 141
},
{
    "fields": {
        "city": 1609350,
        "name": "Bangkok",
        "country": "TH",
        "region": "Bangkok",
        "airport": null,
        "location": "POINT (100.5014400000000023 13.7539800000000003)",
        "slug": "bangkok"
    },
    "model": "rideshares.location",
    "pk": 142
},
{
    "fields": {
        "city": 5582371,
        "name": "Steamboat Springs",
        "country": "US",
        "region": "Colorado",
        "airport": null,
        "location": "POINT (-106.8317200000000042 40.4849800000000002)",
        "slug": "steamboat-springs"
    },
    "model": "rideshares.location",
    "pk": 143
},
{
    "fields": {
        "city": 5391749,
        "name": "San Bruno",
        "country": "US",
        "region": "California",
        "airport": null,
        "location": "POINT (-122.4110799999999983 37.6304900000000018)",
        "slug": "san-bruno"
    },
    "model": "rideshares.location",
    "pk": 144
},
{
    "fields": {
        "city": 5364329,
        "name": "Laguna Niguel",
        "country": "US",
        "region": "California",
        "airport": null,
        "location": "POINT (-117.7075499999999977 33.5225300000000033)",
        "slug": "laguna-niguel"
    },
    "model": "rideshares.location",
    "pk": 145
},
{
    "fields": {
        "city": 5406222,
        "name": "Victorville",
        "country": "US",
        "region": "California",
        "airport": null,
        "location": "POINT (-117.2911600000000050 34.5361100000000008)",
        "slug": "victorville"
    },
    "model": "rideshares.location",
    "pk": 146
},
{
    "fields": {
        "city": 1,
        "name": "Black Rock City",
        "country": "US",
        "region": "Nevada",
        "airport": null,
        "location": "POINT (-119.2223670000000055 40.7815810000000027)",
        "slug": "black-rock-city"
    },
    "model": "rideshares.location",
    "pk": 147
},
{
    "fields": {
        "city": null,
        "name": "Black Rock City Airport",
        "country": "US",
        "region": "Nevada",
        "airport": 45518,
        "location": "POINT (-119.2128610000000037 40.7573330000000027)",
        "slug": "black-rock-city-airport"
    },
    "model": "rideshares.location",
    "pk": 148
},
{
    "fields": {
        "city": null,
        "name": "San Rafael Airport",
        "country": "US",
        "region": "California",
        "airport": 16566,
        "location": "POINT (-122.5210037231450002 38.0168991088866974)",
        "slug": "san-rafael-airport"
    },
    "model": "rideshares.location",
    "pk": 149
},
{
    "fields": {
        "city": null,
        "name": "Laramie Regional Airport",
        "country": "US",
        "region": "Wyoming",
        "airport": 3630,
        "location": "POINT (-105.6750030517579972 41.3120994567871023)",
        "slug": "laramie-regional-airport"
    },
    "model": "rideshares.location",
    "pk": 150
},
{
    "fields": {
        "city": null,
        "name": "Calgary International Airport",
        "country": "CA",
        "region": "Alberta",
        "airport": 1973,
        "location": "POINT (-114.0199966430659941 51.1138992309570028)",
        "slug": "calgary-international-airport"
    },
    "model": "rideshares.location",
    "pk": 151
},
{
    "fields": {
        "city": null,
        "name": "Parent Airport",
        "country": "CA",
        "region": "Quebec",
        "airport": 1853,
        "location": "POINT (-74.6081008911132955 47.9319000244140980)",
        "slug": "parent-airport"
    },
    "model": "rideshares.location",
    "pk": 152
},
{
    "fields": {
        "city": 5347322,
        "name": "Fairfax",
        "country": "US",
        "region": "California",
        "airport": null,
        "location": "POINT (-122.5888700000000000 37.9871499999999997)",
        "slug": "fairfax"
    },
    "model": "rideshares.location",
    "pk": 153
},
{
    "fields": {
        "city": 3369157,
        "name": "Cape Town",
        "country": "ZA",
        "region": "Western Cape",
        "airport": null,
        "location": "POINT (18.4232200000000006 -33.9258400000000009)",
        "slug": "cape-town"
    },
    "model": "rideshares.location",
    "pk": 155
},
{
    "fields": {
        "city": 3369157,
        "name": "Tankwa Town",
        "country": "ZA",
        "region": "Western Cape",
        "airport": null,
        "location": "POINT (19.7482167000000004 -32.3346999999999980)",
        "slug": "tankwa-town"
    },
    "model": "rideshares.location",
    "pk": 156
}
]
