[
    {
        "pk": 38, 
        "model": "django_runtime_tags.runtimetag", 
        "fields": {
            "valid_start": "2012-12-02 08:34:46", 
            "value": false, 
            "key": "EnableRideshareSubmit"
        }
    }, 
    {
        "pk": 40, 
        "model": "django_runtime_tags.runtimetag", 
        "fields": {
            "valid_start": "2012-12-02 08:34:46", 
            "value": true, 
            "key": "KioskMode"
        }
    }, 
    {
        "pk": 39, 
        "model": "django_runtime_tags.runtimetag", 
        "fields": {
            "valid_start": "2012-12-02 08:34:46", 
            "value": true, 
            "key": "ReadOnlyMode"
        }
    }
]